{
  "name": "dataset",
  "base": "PersistedModel",
  "idInjection": true,
  "options": {
    "validateUpsert": true
  },
  "properties": {
    "name": {
      "type": "string",
      "required": true
    },
    "description": {
      "type": "string",
      "required": true
    },
    "url": {
      "type": "string"
    },
    "sameAs": {
      "type": "string"
    },
    "keywords": {
      "type": [
        "string"
      ]
    },
    "creator": {
      "type": "object"
    },
    "includedInDataCatalog": {
      "type": "object"
    },
    "distribution": {
      "type": [
        "object"
      ]
    },
    "temporalCoverage": {
      "type": "string"
    },
    "spatialCoverage": {
      "type": "object"
    }
  },
  "validations": [],
  "relations": {},
  "acls": [],
  "methods": {}
}
