{
  "name": "organization",
  "base": "PersistedModel",
  "idInjection": true,
  "options": {
    "validateUpsert": true
  },
  "properties": {
    "name": {
      "type": "string",
      "required": true
    },
    "url": {
      "type": "string"
    },
    "logo": {
      "type": "string"
    },
    "image": {
      "type": "string"
    },
    "description": {
      "type": "string",
      "required": true
    },
    "location": {
      "type": [
        "object"
      ]
    },
    "contactPoint": {
      "type": "object"
    }
  },
  "validations": [],
  "relations": {},
  "acls": [],
  "methods": {}
}
